[ 2018-06-20 14:51:42 ][INFO] Capture SDK Version: : 2.0
[ 2018-06-20 14:51:42 ][INFO] Graphics Card Info: : NVIDIA GeForce GTX 1060
[ 2018-06-20 14:51:42 ][INFO] Graphics Card Info: : Intel(R) HD Graphics 630
[ 2018-06-20 14:51:42 ][INFO] Graphics Card Info: : Microsoft Basic Render Driver
[ 2018-06-20 14:51:42 ][INFO] Output folder already existed
[ 2018-06-20 14:51:42 ][INFO] Passed capture capability tests. Ready to start encoding
[ 2018-06-20 14:51:42 ][INFO] Audio device name: : マイク (Realtek High Definition Audio)
[ 2018-06-20 14:51:42 ][INFO] Audio device name: : マイク (HTC Vive)
[ 2018-06-20 14:51:42 ][INFO] Found VR audio device. We're using them as audio intput/output source
[ 2018-06-20 14:51:42 ][INFO] Audio device name: : LG FULL HD-0 (NVIDIA High Definition Audio)
[ 2018-06-20 14:51:42 ][INFO] Audio device name: : HTC-VIVE-C (NVIDIA High Definition Audio)
[ 2018-06-20 14:51:42 ][INFO] Audio device name: : スピーカー (Realtek High Definition Audio)
[ 2018-06-20 14:51:42 ][INFO] Can't find VR audio devices. Just use default audio input and output
[ 2018-06-20 14:51:42 ][INFO] Start audio capture
[ 2018-06-20 14:51:42 ][INFO] No data can be read from Microphone--IAudioCaptureClient::GetBuffer
[ 2018-06-20 14:51:42 ][INFO] No data can be read from Microphone--IAudioCaptureClient::GetBuffer
[ 2018-06-20 14:51:42 ][INFO] No data can be read from Microphone--IAudioCaptureClient::GetBuffer
[ 2018-06-20 14:52:25 ][INFO] Released wave file resources
[ 2018-06-20 14:52:25 ][INFO] Start audio transcoding
[ 2018-06-20 14:52:26 ][INFO] Released audio capture devices
[ 2018-06-20 14:54:49 ][INFO] Released audio capture devices
